…
Part 2: Exploring the data

Because we are working with a tibble instead of a standard data frame, we can feel confident that our data will print relatively cleanly. Lets go ahead and print the data frame.

df
## Simple feature collection with 52 features and 10 fields
## geometry type:  MULTIPOLYGON
## dimension:      XY
## bbox:           xmin: -179.1473 ymin: 17.88481 xmax: 179.7785 ymax: 71.35256
## epsg (SRID):    4269
## proj4string:    +proj=longlat +ellps=GRS80 +towgs84=0,0,0,0,0,0,0 +no_defs
## # A tibble: 52 x 11
##    GEOID NAME  P008003 P008004 P008005 P008006 P004001 P004002 P004003
##    <chr> <chr>   <dbl>   <dbl>   <dbl>   <dbl>   <dbl>   <dbl>   <dbl>
##  1 01    Alab  3.28e6 1251311   28218   53595  4.78e6  4.59e6  1.86e5
##  2 02    Alas  4.74e5   23263  104871   38135  7.10e5  6.71e5  3.92e4
##  3 04    Ariz  4.67e6  259008  296529  176695  6.39e6  4.50e6  1.90e6
##  4 05    Arka  2.25e6  449895   22248   36102  2.92e6  2.73e6  1.86e5
##  5 06    Cali  2.15e7 2299072  362801 4861007  3.73e7  2.32e7  1.40e7
##  6 22    Loui  2.84e6 1452396   30579   70132  4.53e6  4.34e6  1.93e5
##  7 21    Kent  3.81e6  337520   10120   48930  4.34e6  4.21e6  1.33e5
##  8 08    Colo  4.09e6  201737   56010  139028  5.03e6  3.99e6  1.04e6
##  9 09    Conn  2.77e6  362296   11256  135565  3.57e6  3.10e6  4.79e5
## 10 10    Dela  6.19e5  191814    4181   28549  8.98e5  8.25e5  7.32e4
## # ... with 42 more rows, and 2 more variables: summary_value <dbl>,
## #   geometry <MULTIPOLYGON []>
…
